<?xml version="1.0" encoding="UTF-8" standalone="no"?>
<svg
   viewBox="0 0 160 200"
   version="1.1"
   id="svg41"
   sodipodi:docname="lit.svg"
   width="160"
   height="200"
   inkscape:version="1.2.2 (b0a8486541, 2022-12-01, custom)"
   xmlns:inkscape="http://www.inkscape.org/namespaces/inkscape"
   xmlns:sodipodi="http://sodipodi.sourceforge.net/DTD/sodipodi-0.dtd"
   xmlns="http://www.w3.org/2000/svg"
   xmlns:svg="http://www.w3.org/2000/svg">
  <defs
     id="defs45" />
  <sodipodi:namedview
     id="namedview43"
     pagecolor="#ffffff"
     bordercolor="#000000"
     borderopacity="0.25"
     inkscape:showpageshadow="2"
     inkscape:pageopacity="0.0"
     inkscape:pagecheckerboard="0"
     inkscape:deskcolor="#d1d1d1"
     showgrid="false"
     inkscape:zoom="2.2776471"
     inkscape:cx="213.59762"
     inkscape:cy="100.10331"
     inkscape:window-width="2161"
     inkscape:window-height="1205"
     inkscape:window-x="26"
     inkscape:window-y="23"
     inkscape:window-maximized="0"
     inkscape:current-layer="svg41" />
  <view
     id="flame"
     viewBox="0 0 160 200" />
  <view
     id="name"
     viewBox="240 78 185 122" />
  <path
     fill="#00e8ff"
     d="m 40,120 20,-60 90,90 -30,50 -40,-40 H 60"
     id="path33" />
  <path
     fill="#283198"
     d="M 80,160 V 80 l 40,-40 v 80 M 0,160 40,200 60,160 40,120 H 20"
     id="path35" />
  <path
     fill="#324fff"
     d="M 40,120 V 40 L 80,0 v 80 m 40,120 v -80 l 40,-40 v 80 M 0,160 V 80 l 40,40"
     id="path37" />
  <path
     fill="#00ffff"
     d="m 40,200 v -80 l 40,40"
     id="path39" />
</svg>
